…
``` r
obj$data$tax_occ <- calc_n_samples(obj, "tax_abund", groups = sample$SEASON, cols = sample$sampleID)
```

    ## Calculating number of samples with a value greater than 0 for 40 columns in 2 groups for 3865 observations

``` r
print(obj$data$tax_occ)
```

    ## # A tibble: 3,865 x 3
    ##    taxon_id   WET   DRY
    ##    <chr>    <int> <int>
    ##  1 aab         20    20
    ##  2 aac         20    20
    ##  3 aad         20    16
    ##  4 aae         11     1
    ##  5 aaf         20    20
    ##  6 aag          6     1
    ##  7 aah          9     9
    ##  8 aai         14    11
    ##  9 aaj          4     0
    ## 10 aak         12     2
    ## # ... with 3,855 more rows
…
