…
``` r
dat<- read.csv('data/final_anal/CYBs_correct_names.csv', header = TRUE)

parallel_dat <- read.csv('data/final_anal/parallel_LT_final.csv', header = T)

trad_dat <-read.csv('data/final_anal/tradbinary_LT_only.csv', header = T)
trad_dat %>%
  group_by(bold_bin, classification) %>%
  summarise_all(sum) %>%
  data.frame() -> trad_dat

trad_dat %>% group_by(bold_bin) %>% filter(n()>1)
```

    ## # A tibble: 43 x 38
    ## # Groups:   bold_bin [21]
    ##    bold_bin     classi~1 ALTOS~2 ARM1_~3 ARM1_~4 ARM2_~5 ARM2_~6 ARM3_~7 ARM3_~8
    ##    <chr>        <chr>      <int>   <int>   <int>   <int>   <int>   <int>   <int>
    ##  1 BOLD:AAA6238 k__Anim~       0       0       0       0       0       0       0
    ##  2 BOLD:AAA6238 k__Anim~       0       0       0       0       0       0       0
    ##  3 BOLD:AAA8259 k__Anim~       0       0       0       0       0       0       0
    ##  4 BOLD:AAA8259 k__Anim~       0       0       0       0       0       0       0
    ##  5 BOLD:AAB4611 k__Anim~       0       0       0       0       0       0       0
    ##  6 BOLD:AAB4611 k__Anim~       0       0       0       0       0       0       0
    ##  7 BOLD:AAB4965 k__Anim~       0       0       0       0       0       0       0
    ##  8 BOLD:AAB4965 k__Anim~       0       0       0       0       0       0       0
    ##  9 BOLD:AAB7446 k__Anim~       0       0       0       0       0       0       0
    ## 10 BOLD:AAB7446 k__Anim~       0       0       0       0       0       0       0
    ## # ... with 33 more rows, 29 more variables: L02_wet_LT <int>,
    ## #   L02TEST_dry_LT <int>, L02_dry_LT <int>, ARM4_wet_LT <int>,
    ## #   ARM4_dry_LT <int>, BAL1_dry_LT <int>, BAL1_wet_LT <int>,
    ## #   ALATESHIK_na_LT <int>, DRA1_dry_LT <int>, DRA1_wet_LT <int>,
    ## #   L03_wet_LT <int>, L03_dry_LT <int>, PRD_dry_LT <int>, WHE1_wet_LT <int>,
    ## #   WHE1_dry_LT <int>, L05_wet_LT <int>, L05TEST_wet_LT <int>,
    ## #   WHE2_dry_LT <int>, WHE2_wet_LT <int>, L05TEST_dry_LT <int>, ...
…
